
1030,1038,1052,1083,1114,1125,1128,1156,1159,1200,126,1288,1296,130,1306,1342,1353,1424,1448,1466,147,1485,1497,1559,16,1602,161,1653,1657,1722,173,1741,1745,1770,1815,1819,182,183,1854,1858,1859,1860,1868,1879,1884,1908,1926,1953,1960,2029,2031,2046,2047,2075,208,2124,2167,2176,2188,2219,2220,2226,2226,2229,2241,2260,2265,2315,2320,233,2333,2336,2362,2376,2378,2449,2463,2465,2481,2537,254,2567,2593,2606,2611,2635,2666,2675,2717,2732,2736,2751,2781,2797,2815,283,2843,285,2881,2937,2972,2976,3025,3027,3056,3059,3124,3129,3174,3184,3188,3196,3268,3315,3324,3336,3336,3341,3353,3353,3360,3386,3409,3409,3414,3426,3445,346,3478,3527,3599,3601,363,3662,3698,3713,373,3734,3781,3829,3860,3863,3868,3869,3950,3951,3963,3972,3973,3979,3979,4030,4039,4045,4068,4069,4076,4092,4128,4131,4147,4192,4195,4207,4218,4237,424,4252,4294,4306,4307,4326,4351,4355,4398,4399,4470,4485,4505,4515,4543,4616,4619,4630,4650,4653,4660,4672,4676,4694,4716,4728,4781,4789,4803,4814,4827,4854,4855,4892,49,490,4903,491,4925,4929,4930,4930,4944,4946,4980,4999,5016,5047,5052,5086,5089,5125,513,5133,5142,5144,5145,5194,5199,5210,5213,5259,5315,532,5357,5392,5423,5439,55,551,5567,5575,5612,5651,5675,5683,5730,5743,5753,5767,5787,5804,5810,5832,5847,585,5852,587,5871,5881,5883,5897,5950,5969,5990,6056,6074,6087,6102,6103,6108,6112,6133,6163,6164,6168,6176,6180,6203,6224,6288,6297,6330,6334,6337,6339,6359,6381,6408,641,6474,6476,649,6502,6510,653,6551,6555,6568,6577,6587,6588,6594,6619,6631,6654,6664,673,6733,674,6750,6750,6758,6760,6786,6822,683,6869,6881,6908,6965,6968,6981,6992,700,7019,7027,7044,7057,7099,711,7164,7251,7263,7279,7299,7326,7378,739,7399,7410,7434,7438,7443,7463,75,7528,755,7557,7630,7645,7656,7657,7667,7667,7685,7691,7694,7700,7704,7755,7785,779,7796,7809,7831,7852,7867,7878,7883,7888,7953,7954,7993,7999,8024,8036,8037,8042,8046,8052,8057,8062,8082,8093,8102,8124,8129,8130,8246,8251,8261,8307,8324,8344,8350,8361,8366,8374,8384,8387,8390,8396,8410,8442,8470,8480,8525,8575,8600,861,8682,8730,8749,8757,8767,8828,8832,8834,8839,8855,8861,8870,8881,8887,8893,8907,8915,8915,8939,8952,8977,9027,9044,908,9131,914,9147,9163,9179,9219,9263,9275,9279,9281,9289,9394,9399,9411,9418,9419,9449,9478,9487,9487,9500,9503,9505,9515,9531,9541,9544,955,9559,9583,9583,9619,9638,964,9711,9712,9724,9748,9828,9832,9855,9863,9880,9882,9910,9919,9953,9967,9984





